{
  "project_info": {
    "project_number": "897779069908",
    "firebase_url": "https://medko-e6315.firebaseio.com",
    "project_id": "medko-e6315",
    "storage_bucket": "medko-e6315.appspot.com"
  },
  "client": [
    {
      "client_info": {
        "mobilesdk_app_id": "1:897779069908:android:fb7a6557de4b602a",
        "android_client_info": {
          "package_name": "otgmoblie.com.br.medko"
        }
      },
      "oauth_client": [
        {
          "client_id": "897779069908-fd85i50ttsrdpu55ub8k63bd7pe7haab.apps.googleusercontent.com",
          "client_type": 1,
          "android_info": {
            "package_name": "otgmoblie.com.br.medko",
            "certificate_hash": "54D5739DC099BEC2EF9FAA7ED90D5A482979D259"
          }
        },
        {
          "client_id": "897779069908-ku7s9gkaft5fc5ddqpdc19stsf98iakl.apps.googleusercontent.com",
          "client_type": 3
        }
      ],
      "api_key": [
        {
          "current_key": "AIzaSyAttuyX6ZiehdznuU9Hdkd5cvskZPb3Oe4"
        }
      ],
      "services": {
        "analytics_service": {
          "status": 1
        },
        "appinvite_service": {
          "status": 2,
          "other_platform_oauth_client": [
            {
              "client_id": "897779069908-ku7s9gkaft5fc5ddqpdc19stsf98iakl.apps.googleusercontent.com",
              "client_type": 3
            }
          ]
        },
        "ads_service": {
          "status": 2
        }
      }
    }
  ],
  "configuration_version": "1"
}